// Jest Snapshot v1, https://goo.gl/fbAQLP

exports[`Alert if type is \`"error"\`, it should mount correctly 1`] = `
<AndradeTheme>
  <Component
    theme={
      Object {
        "animation": Object {
          "easeOutElastic": "cubic-bezier(0.64, 0.57, 0.67, 1.53)",
        },
        "colors": Object {
          "blue": Object {
            "$100": "#92aec5",
            "$200": "#7397b4",
            "$300": "#5481a4",
            "$400": "#41739a",
            "$500": "#2f6690",
            "$600": "#2b5d83",
            "$700": "#244d6c",
            "$800": "#1e4059",
            "$900": "#173245",
          },
          "gray": Object {
            "$000": "#FFFFFF",
            "$100": "#FCFCFC",
            "$125": "#F6F6F6",
            "$150": "#EFEFEF",
            "$200": "#E6E6E6",
            "$300": "#CFCFCF",
            "$400": "#BDBDBD",
            "$500": "#AAAAAA",
            "$600": "#979797",
            "$700": "#7c7c7c",
            "$800": "#616161",
            "$900": "#333333",
          },
          "green": Object {
            "$100": "#bbceb1",
            "$200": "#a8c09b",
            "$300": "#95b285",
            "$400": "#89a978",
            "$500": "#7ea16b",
            "$600": "#739362",
            "$700": "#5f7951",
            "$800": "#4e6443",
            "$900": "#3d4e34",
          },
          "orange": Object {
            "$100": "#ebbcaf",
            "$200": "#e6a998",
            "$300": "#e19682",
            "$400": "#de8a74",
            "$500": "#db7f67",
            "$600": "#c8745e",
            "$700": "#a45f4d",
            "$800": "#874e40",
            "$900": "#693d32",
          },
          "purple": Object {
            "$100": "#c9aabc",
            "$200": "#ba92a9",
            "$300": "#ab7a97",
            "$400": "#a26b8c",
            "$500": "#995d81",
            "$600": "#8c5576",
            "$700": "#734661",
            "$800": "#5f3a50",
            "$900": "#4a2d3e",
          },
          "red": Object {
            "$100": "#e7789c",
            "$200": "#e25b87",
            "$300": "#df4678",
            "$400": "#db3269",
            "$500": "#d81e5b",
            "$600": "#c51c53",
            "$700": "#a21744",
            "$800": "#851338",
            "$900": "#680f2c",
          },
          "yellow": Object {
            "$100": "#f0e0af",
            "$200": "#ecd798",
            "$300": "#e8cf82",
            "$400": "#e5ca74",
            "$500": "#e3c567",
            "$600": "#cfb45e",
            "$700": "#aa944d",
            "$800": "#8c7a40",
            "$900": "#6d5f32",
          },
        },
        "fonts": Object {
          "body": "Roboto, sans-serif",
          "code": "FiraCode, monospace",
          "header": "Domine, serif",
        },
        "shadows": Array [
          "0px 0px 1px rgba(51,51,51,0.35)",
          "0px 1px 2px rgba(51,51,51,0.35)",
          "1px 2px 4px rgba(51,51,51,0.35)",
          "2px 4px 8px rgba(51,51,51,0.35)",
          "3px 6px 12px rgba(51,51,51,0.35)",
        ],
      }
    }
  >
    <Memo(l) />
    <Component
      type="error"
    >
      <Styled(Flex)
        alignItems="center"
        color="red"
        justifyContent="flex-start"
      >
        <div
          className="sc-gsTCUz sc-dlfnbm sc-hKgILt lmKWxY ibAgXq guQPsM"
          color="red"
        >
          <Icon
            className="fa-do-not-enter"
            iconSetClassName="far"
            noPadding={false}
            size={2}
          >
            <Styled(Component)
              className="far fa-do-not-enter"
              noPadding={false}
              size={2}
            >
              <Component
                className="sc-bdfBwQ epCeNI far fa-do-not-enter"
                noPadding={false}
                size={2}
              >
                <i
                  className="sc-bdfBwQ epCeNI far fa-do-not-enter"
                />
              </Component>
            </Styled(Component)>
          </Icon>
          <div />
        </div>
      </Styled(Flex)>
    </Component>
  </Component>
</AndradeTheme>
`;

exports[`Alert if type is \`"error"\`, it should render correctly 1`] = `
<Component
  theme={
    Object {
      "animation": Object {
        "easeOutElastic": "cubic-bezier(0.64, 0.57, 0.67, 1.53)",
      },
      "colors": Object {
        "blue": Object {
          "$100": "#92aec5",
          "$200": "#7397b4",
          "$300": "#5481a4",
          "$400": "#41739a",
          "$500": "#2f6690",
          "$600": "#2b5d83",
          "$700": "#244d6c",
          "$800": "#1e4059",
          "$900": "#173245",
        },
        "gray": Object {
          "$000": "#FFFFFF",
          "$100": "#FCFCFC",
          "$125": "#F6F6F6",
          "$150": "#EFEFEF",
          "$200": "#E6E6E6",
          "$300": "#CFCFCF",
          "$400": "#BDBDBD",
          "$500": "#AAAAAA",
          "$600": "#979797",
          "$700": "#7c7c7c",
          "$800": "#616161",
          "$900": "#333333",
        },
        "green": Object {
          "$100": "#bbceb1",
          "$200": "#a8c09b",
          "$300": "#95b285",
          "$400": "#89a978",
          "$500": "#7ea16b",
          "$600": "#739362",
          "$700": "#5f7951",
          "$800": "#4e6443",
          "$900": "#3d4e34",
        },
        "orange": Object {
          "$100": "#ebbcaf",
          "$200": "#e6a998",
          "$300": "#e19682",
          "$400": "#de8a74",
          "$500": "#db7f67",
          "$600": "#c8745e",
          "$700": "#a45f4d",
          "$800": "#874e40",
          "$900": "#693d32",
        },
        "purple": Object {
          "$100": "#c9aabc",
          "$200": "#ba92a9",
          "$300": "#ab7a97",
          "$400": "#a26b8c",
          "$500": "#995d81",
          "$600": "#8c5576",
          "$700": "#734661",
          "$800": "#5f3a50",
          "$900": "#4a2d3e",
        },
        "red": Object {
          "$100": "#e7789c",
          "$200": "#e25b87",
          "$300": "#df4678",
          "$400": "#db3269",
          "$500": "#d81e5b",
          "$600": "#c51c53",
          "$700": "#a21744",
          "$800": "#851338",
          "$900": "#680f2c",
        },
        "yellow": Object {
          "$100": "#f0e0af",
          "$200": "#ecd798",
          "$300": "#e8cf82",
          "$400": "#e5ca74",
          "$500": "#e3c567",
          "$600": "#cfb45e",
          "$700": "#aa944d",
          "$800": "#8c7a40",
          "$900": "#6d5f32",
        },
      },
      "fonts": Object {
        "body": "Roboto, sans-serif",
        "code": "FiraCode, monospace",
        "header": "Domine, serif",
      },
      "shadows": Array [
        "0px 0px 1px rgba(51,51,51,0.35)",
        "0px 1px 2px rgba(51,51,51,0.35)",
        "1px 2px 4px rgba(51,51,51,0.35)",
        "2px 4px 8px rgba(51,51,51,0.35)",
        "3px 6px 12px rgba(51,51,51,0.35)",
      ],
    }
  }
>
  <Memo(l) />
  <Component
    type="error"
  />
</Component>
`;

exports[`Alert if type is \`"info"\`, it should mount correctly 1`] = `
<AndradeTheme>
  <Component
    theme={
      Object {
        "animation": Object {
          "easeOutElastic": "cubic-bezier(0.64, 0.57, 0.67, 1.53)",
        },
        "colors": Object {
          "blue": Object {
            "$100": "#92aec5",
            "$200": "#7397b4",
            "$300": "#5481a4",
            "$400": "#41739a",
            "$500": "#2f6690",
            "$600": "#2b5d83",
            "$700": "#244d6c",
            "$800": "#1e4059",
            "$900": "#173245",
          },
          "gray": Object {
            "$000": "#FFFFFF",
            "$100": "#FCFCFC",
            "$125": "#F6F6F6",
            "$150": "#EFEFEF",
            "$200": "#E6E6E6",
            "$300": "#CFCFCF",
            "$400": "#BDBDBD",
            "$500": "#AAAAAA",
            "$600": "#979797",
            "$700": "#7c7c7c",
            "$800": "#616161",
            "$900": "#333333",
          },
          "green": Object {
            "$100": "#bbceb1",
            "$200": "#a8c09b",
            "$300": "#95b285",
            "$400": "#89a978",
            "$500": "#7ea16b",
            "$600": "#739362",
            "$700": "#5f7951",
            "$800": "#4e6443",
            "$900": "#3d4e34",
          },
          "orange": Object {
            "$100": "#ebbcaf",
            "$200": "#e6a998",
            "$300": "#e19682",
            "$400": "#de8a74",
            "$500": "#db7f67",
            "$600": "#c8745e",
            "$700": "#a45f4d",
            "$800": "#874e40",
            "$900": "#693d32",
          },
          "purple": Object {
            "$100": "#c9aabc",
            "$200": "#ba92a9",
            "$300": "#ab7a97",
            "$400": "#a26b8c",
            "$500": "#995d81",
            "$600": "#8c5576",
            "$700": "#734661",
            "$800": "#5f3a50",
            "$900": "#4a2d3e",
          },
          "red": Object {
            "$100": "#e7789c",
            "$200": "#e25b87",
            "$300": "#df4678",
            "$400": "#db3269",
            "$500": "#d81e5b",
            "$600": "#c51c53",
            "$700": "#a21744",
            "$800": "#851338",
            "$900": "#680f2c",
          },
          "yellow": Object {
            "$100": "#f0e0af",
            "$200": "#ecd798",
            "$300": "#e8cf82",
            "$400": "#e5ca74",
            "$500": "#e3c567",
            "$600": "#cfb45e",
            "$700": "#aa944d",
            "$800": "#8c7a40",
            "$900": "#6d5f32",
          },
        },
        "fonts": Object {
          "body": "Roboto, sans-serif",
          "code": "FiraCode, monospace",
          "header": "Domine, serif",
        },
        "shadows": Array [
          "0px 0px 1px rgba(51,51,51,0.35)",
          "0px 1px 2px rgba(51,51,51,0.35)",
          "1px 2px 4px rgba(51,51,51,0.35)",
          "2px 4px 8px rgba(51,51,51,0.35)",
          "3px 6px 12px rgba(51,51,51,0.35)",
        ],
      }
    }
  >
    <Memo(l) />
    <Component
      type="info"
    >
      <Styled(Flex)
        alignItems="center"
        color="blue"
        justifyContent="flex-start"
      >
        <div
          className="sc-gsTCUz sc-dlfnbm sc-hKgILt lmKWxY ibAgXq kNvZrA"
          color="blue"
        >
          <Icon
            className="fa-exclamation-circle"
            iconSetClassName="far"
            noPadding={false}
            size={2}
          >
            <Styled(Component)
              className="far fa-exclamation-circle"
              noPadding={false}
              size={2}
            >
              <Component
                className="sc-bdfBwQ epCeNI far fa-exclamation-circle"
                noPadding={false}
                size={2}
              >
                <i
                  className="sc-bdfBwQ epCeNI far fa-exclamation-circle"
                />
              </Component>
            </Styled(Component)>
          </Icon>
          <div />
        </div>
      </Styled(Flex)>
    </Component>
  </Component>
</AndradeTheme>
`;

exports[`Alert if type is \`"info"\`, it should render correctly 1`] = `
<Component
  theme={
    Object {
      "animation": Object {
        "easeOutElastic": "cubic-bezier(0.64, 0.57, 0.67, 1.53)",
      },
      "colors": Object {
        "blue": Object {
          "$100": "#92aec5",
          "$200": "#7397b4",
          "$300": "#5481a4",
          "$400": "#41739a",
          "$500": "#2f6690",
          "$600": "#2b5d83",
          "$700": "#244d6c",
          "$800": "#1e4059",
          "$900": "#173245",
        },
        "gray": Object {
          "$000": "#FFFFFF",
          "$100": "#FCFCFC",
          "$125": "#F6F6F6",
          "$150": "#EFEFEF",
          "$200": "#E6E6E6",
          "$300": "#CFCFCF",
          "$400": "#BDBDBD",
          "$500": "#AAAAAA",
          "$600": "#979797",
          "$700": "#7c7c7c",
          "$800": "#616161",
          "$900": "#333333",
        },
        "green": Object {
          "$100": "#bbceb1",
          "$200": "#a8c09b",
          "$300": "#95b285",
          "$400": "#89a978",
          "$500": "#7ea16b",
          "$600": "#739362",
          "$700": "#5f7951",
          "$800": "#4e6443",
          "$900": "#3d4e34",
        },
        "orange": Object {
          "$100": "#ebbcaf",
          "$200": "#e6a998",
          "$300": "#e19682",
          "$400": "#de8a74",
          "$500": "#db7f67",
          "$600": "#c8745e",
          "$700": "#a45f4d",
          "$800": "#874e40",
          "$900": "#693d32",
        },
        "purple": Object {
          "$100": "#c9aabc",
          "$200": "#ba92a9",
          "$300": "#ab7a97",
          "$400": "#a26b8c",
          "$500": "#995d81",
          "$600": "#8c5576",
          "$700": "#734661",
          "$800": "#5f3a50",
          "$900": "#4a2d3e",
        },
        "red": Object {
          "$100": "#e7789c",
          "$200": "#e25b87",
          "$300": "#df4678",
          "$400": "#db3269",
          "$500": "#d81e5b",
          "$600": "#c51c53",
          "$700": "#a21744",
          "$800": "#851338",
          "$900": "#680f2c",
        },
        "yellow": Object {
          "$100": "#f0e0af",
          "$200": "#ecd798",
          "$300": "#e8cf82",
          "$400": "#e5ca74",
          "$500": "#e3c567",
          "$600": "#cfb45e",
          "$700": "#aa944d",
          "$800": "#8c7a40",
          "$900": "#6d5f32",
        },
      },
      "fonts": Object {
        "body": "Roboto, sans-serif",
        "code": "FiraCode, monospace",
        "header": "Domine, serif",
      },
      "shadows": Array [
        "0px 0px 1px rgba(51,51,51,0.35)",
        "0px 1px 2px rgba(51,51,51,0.35)",
        "1px 2px 4px rgba(51,51,51,0.35)",
        "2px 4px 8px rgba(51,51,51,0.35)",
        "3px 6px 12px rgba(51,51,51,0.35)",
      ],
    }
  }
>
  <Memo(l) />
  <Component
    type="info"
  />
</Component>
`;

exports[`Alert if type is \`"success"\`, it should mount correctly 1`] = `
<AndradeTheme>
  <Component
    theme={
      Object {
        "animation": Object {
          "easeOutElastic": "cubic-bezier(0.64, 0.57, 0.67, 1.53)",
        },
        "colors": Object {
          "blue": Object {
            "$100": "#92aec5",
            "$200": "#7397b4",
            "$300": "#5481a4",
            "$400": "#41739a",
            "$500": "#2f6690",
            "$600": "#2b5d83",
            "$700": "#244d6c",
            "$800": "#1e4059",
            "$900": "#173245",
          },
          "gray": Object {
            "$000": "#FFFFFF",
            "$100": "#FCFCFC",
            "$125": "#F6F6F6",
            "$150": "#EFEFEF",
            "$200": "#E6E6E6",
            "$300": "#CFCFCF",
            "$400": "#BDBDBD",
            "$500": "#AAAAAA",
            "$600": "#979797",
            "$700": "#7c7c7c",
            "$800": "#616161",
            "$900": "#333333",
          },
          "green": Object {
            "$100": "#bbceb1",
            "$200": "#a8c09b",
            "$300": "#95b285",
            "$400": "#89a978",
            "$500": "#7ea16b",
            "$600": "#739362",
            "$700": "#5f7951",
            "$800": "#4e6443",
            "$900": "#3d4e34",
          },
          "orange": Object {
            "$100": "#ebbcaf",
            "$200": "#e6a998",
            "$300": "#e19682",
            "$400": "#de8a74",
            "$500": "#db7f67",
            "$600": "#c8745e",
            "$700": "#a45f4d",
            "$800": "#874e40",
            "$900": "#693d32",
          },
          "purple": Object {
            "$100": "#c9aabc",
            "$200": "#ba92a9",
            "$300": "#ab7a97",
            "$400": "#a26b8c",
            "$500": "#995d81",
            "$600": "#8c5576",
            "$700": "#734661",
            "$800": "#5f3a50",
            "$900": "#4a2d3e",
          },
          "red": Object {
            "$100": "#e7789c",
            "$200": "#e25b87",
            "$300": "#df4678",
            "$400": "#db3269",
            "$500": "#d81e5b",
            "$600": "#c51c53",
            "$700": "#a21744",
            "$800": "#851338",
            "$900": "#680f2c",
          },
          "yellow": Object {
            "$100": "#f0e0af",
            "$200": "#ecd798",
            "$300": "#e8cf82",
            "$400": "#e5ca74",
            "$500": "#e3c567",
            "$600": "#cfb45e",
            "$700": "#aa944d",
            "$800": "#8c7a40",
            "$900": "#6d5f32",
          },
        },
        "fonts": Object {
          "body": "Roboto, sans-serif",
          "code": "FiraCode, monospace",
          "header": "Domine, serif",
        },
        "shadows": Array [
          "0px 0px 1px rgba(51,51,51,0.35)",
          "0px 1px 2px rgba(51,51,51,0.35)",
          "1px 2px 4px rgba(51,51,51,0.35)",
          "2px 4px 8px rgba(51,51,51,0.35)",
          "3px 6px 12px rgba(51,51,51,0.35)",
        ],
      }
    }
  >
    <Memo(l) />
    <Component
      type="success"
    >
      <Styled(Flex)
        alignItems="center"
        color="green"
        justifyContent="flex-start"
      >
        <div
          className="sc-gsTCUz sc-dlfnbm sc-hKgILt lmKWxY ibAgXq ffvsxY"
          color="green"
        >
          <Icon
            className="fa-check-circle"
            iconSetClassName="far"
            noPadding={false}
            size={2}
          >
            <Styled(Component)
              className="far fa-check-circle"
              noPadding={false}
              size={2}
            >
              <Component
                className="sc-bdfBwQ epCeNI far fa-check-circle"
                noPadding={false}
                size={2}
              >
                <i
                  className="sc-bdfBwQ epCeNI far fa-check-circle"
                />
              </Component>
            </Styled(Component)>
          </Icon>
          <div />
        </div>
      </Styled(Flex)>
    </Component>
  </Component>
</AndradeTheme>
`;

exports[`Alert if type is \`"success"\`, it should render correctly 1`] = `
<Component
  theme={
    Object {
      "animation": Object {
        "easeOutElastic": "cubic-bezier(0.64, 0.57, 0.67, 1.53)",
      },
      "colors": Object {
        "blue": Object {
          "$100": "#92aec5",
          "$200": "#7397b4",
          "$300": "#5481a4",
          "$400": "#41739a",
          "$500": "#2f6690",
          "$600": "#2b5d83",
          "$700": "#244d6c",
          "$800": "#1e4059",
          "$900": "#173245",
        },
        "gray": Object {
          "$000": "#FFFFFF",
          "$100": "#FCFCFC",
          "$125": "#F6F6F6",
          "$150": "#EFEFEF",
          "$200": "#E6E6E6",
          "$300": "#CFCFCF",
          "$400": "#BDBDBD",
          "$500": "#AAAAAA",
          "$600": "#979797",
          "$700": "#7c7c7c",
          "$800": "#616161",
          "$900": "#333333",
        },
        "green": Object {
          "$100": "#bbceb1",
          "$200": "#a8c09b",
          "$300": "#95b285",
          "$400": "#89a978",
          "$500": "#7ea16b",
          "$600": "#739362",
          "$700": "#5f7951",
          "$800": "#4e6443",
          "$900": "#3d4e34",
        },
        "orange": Object {
          "$100": "#ebbcaf",
          "$200": "#e6a998",
          "$300": "#e19682",
          "$400": "#de8a74",
          "$500": "#db7f67",
          "$600": "#c8745e",
          "$700": "#a45f4d",
          "$800": "#874e40",
          "$900": "#693d32",
        },
        "purple": Object {
          "$100": "#c9aabc",
          "$200": "#ba92a9",
          "$300": "#ab7a97",
          "$400": "#a26b8c",
          "$500": "#995d81",
          "$600": "#8c5576",
          "$700": "#734661",
          "$800": "#5f3a50",
          "$900": "#4a2d3e",
        },
        "red": Object {
          "$100": "#e7789c",
          "$200": "#e25b87",
          "$300": "#df4678",
          "$400": "#db3269",
          "$500": "#d81e5b",
          "$600": "#c51c53",
          "$700": "#a21744",
          "$800": "#851338",
          "$900": "#680f2c",
        },
        "yellow": Object {
          "$100": "#f0e0af",
          "$200": "#ecd798",
          "$300": "#e8cf82",
          "$400": "#e5ca74",
          "$500": "#e3c567",
          "$600": "#cfb45e",
          "$700": "#aa944d",
          "$800": "#8c7a40",
          "$900": "#6d5f32",
        },
      },
      "fonts": Object {
        "body": "Roboto, sans-serif",
        "code": "FiraCode, monospace",
        "header": "Domine, serif",
      },
      "shadows": Array [
        "0px 0px 1px rgba(51,51,51,0.35)",
        "0px 1px 2px rgba(51,51,51,0.35)",
        "1px 2px 4px rgba(51,51,51,0.35)",
        "2px 4px 8px rgba(51,51,51,0.35)",
        "3px 6px 12px rgba(51,51,51,0.35)",
      ],
    }
  }
>
  <Memo(l) />
  <Component
    type="success"
  />
</Component>
`;

exports[`Alert if type is \`"warning"\`, it should mount correctly 1`] = `
<AndradeTheme>
  <Component
    theme={
      Object {
        "animation": Object {
          "easeOutElastic": "cubic-bezier(0.64, 0.57, 0.67, 1.53)",
        },
        "colors": Object {
          "blue": Object {
            "$100": "#92aec5",
            "$200": "#7397b4",
            "$300": "#5481a4",
            "$400": "#41739a",
            "$500": "#2f6690",
            "$600": "#2b5d83",
            "$700": "#244d6c",
            "$800": "#1e4059",
            "$900": "#173245",
          },
          "gray": Object {
            "$000": "#FFFFFF",
            "$100": "#FCFCFC",
            "$125": "#F6F6F6",
            "$150": "#EFEFEF",
            "$200": "#E6E6E6",
            "$300": "#CFCFCF",
            "$400": "#BDBDBD",
            "$500": "#AAAAAA",
            "$600": "#979797",
            "$700": "#7c7c7c",
            "$800": "#616161",
            "$900": "#333333",
          },
          "green": Object {
            "$100": "#bbceb1",
            "$200": "#a8c09b",
            "$300": "#95b285",
            "$400": "#89a978",
            "$500": "#7ea16b",
            "$600": "#739362",
            "$700": "#5f7951",
            "$800": "#4e6443",
            "$900": "#3d4e34",
          },
          "orange": Object {
            "$100": "#ebbcaf",
            "$200": "#e6a998",
            "$300": "#e19682",
            "$400": "#de8a74",
            "$500": "#db7f67",
            "$600": "#c8745e",
            "$700": "#a45f4d",
            "$800": "#874e40",
            "$900": "#693d32",
          },
          "purple": Object {
            "$100": "#c9aabc",
            "$200": "#ba92a9",
            "$300": "#ab7a97",
            "$400": "#a26b8c",
            "$500": "#995d81",
            "$600": "#8c5576",
            "$700": "#734661",
            "$800": "#5f3a50",
            "$900": "#4a2d3e",
          },
          "red": Object {
            "$100": "#e7789c",
            "$200": "#e25b87",
            "$300": "#df4678",
            "$400": "#db3269",
            "$500": "#d81e5b",
            "$600": "#c51c53",
            "$700": "#a21744",
            "$800": "#851338",
            "$900": "#680f2c",
          },
          "yellow": Object {
            "$100": "#f0e0af",
            "$200": "#ecd798",
            "$300": "#e8cf82",
            "$400": "#e5ca74",
            "$500": "#e3c567",
            "$600": "#cfb45e",
            "$700": "#aa944d",
            "$800": "#8c7a40",
            "$900": "#6d5f32",
          },
        },
        "fonts": Object {
          "body": "Roboto, sans-serif",
          "code": "FiraCode, monospace",
          "header": "Domine, serif",
        },
        "shadows": Array [
          "0px 0px 1px rgba(51,51,51,0.35)",
          "0px 1px 2px rgba(51,51,51,0.35)",
          "1px 2px 4px rgba(51,51,51,0.35)",
          "2px 4px 8px rgba(51,51,51,0.35)",
          "3px 6px 12px rgba(51,51,51,0.35)",
        ],
      }
    }
  >
    <Memo(l) />
    <Component
      type="warning"
    >
      <Styled(Flex)
        alignItems="center"
        color="yellow"
        justifyContent="flex-start"
      >
        <div
          className="sc-gsTCUz sc-dlfnbm sc-hKgILt lmKWxY ibAgXq fVbGqE"
          color="yellow"
        >
          <Icon
            className="fa-radiation-alt"
            iconSetClassName="far"
            noPadding={false}
            size={2}
          >
            <Styled(Component)
              className="far fa-radiation-alt"
              noPadding={false}
              size={2}
            >
              <Component
                className="sc-bdfBwQ epCeNI far fa-radiation-alt"
                noPadding={false}
                size={2}
              >
                <i
                  className="sc-bdfBwQ epCeNI far fa-radiation-alt"
                />
              </Component>
            </Styled(Component)>
          </Icon>
          <div />
        </div>
      </Styled(Flex)>
    </Component>
  </Component>
</AndradeTheme>
`;

exports[`Alert if type is \`"warning"\`, it should render correctly 1`] = `
<Component
  theme={
    Object {
      "animation": Object {
        "easeOutElastic": "cubic-bezier(0.64, 0.57, 0.67, 1.53)",
      },
      "colors": Object {
        "blue": Object {
          "$100": "#92aec5",
          "$200": "#7397b4",
          "$300": "#5481a4",
          "$400": "#41739a",
          "$500": "#2f6690",
          "$600": "#2b5d83",
          "$700": "#244d6c",
          "$800": "#1e4059",
          "$900": "#173245",
        },
        "gray": Object {
          "$000": "#FFFFFF",
          "$100": "#FCFCFC",
          "$125": "#F6F6F6",
          "$150": "#EFEFEF",
          "$200": "#E6E6E6",
          "$300": "#CFCFCF",
          "$400": "#BDBDBD",
          "$500": "#AAAAAA",
          "$600": "#979797",
          "$700": "#7c7c7c",
          "$800": "#616161",
          "$900": "#333333",
        },
        "green": Object {
          "$100": "#bbceb1",
          "$200": "#a8c09b",
          "$300": "#95b285",
          "$400": "#89a978",
          "$500": "#7ea16b",
          "$600": "#739362",
          "$700": "#5f7951",
          "$800": "#4e6443",
          "$900": "#3d4e34",
        },
        "orange": Object {
          "$100": "#ebbcaf",
          "$200": "#e6a998",
          "$300": "#e19682",
          "$400": "#de8a74",
          "$500": "#db7f67",
          "$600": "#c8745e",
          "$700": "#a45f4d",
          "$800": "#874e40",
          "$900": "#693d32",
        },
        "purple": Object {
          "$100": "#c9aabc",
          "$200": "#ba92a9",
          "$300": "#ab7a97",
          "$400": "#a26b8c",
          "$500": "#995d81",
          "$600": "#8c5576",
          "$700": "#734661",
          "$800": "#5f3a50",
          "$900": "#4a2d3e",
        },
        "red": Object {
          "$100": "#e7789c",
          "$200": "#e25b87",
          "$300": "#df4678",
          "$400": "#db3269",
          "$500": "#d81e5b",
          "$600": "#c51c53",
          "$700": "#a21744",
          "$800": "#851338",
          "$900": "#680f2c",
        },
        "yellow": Object {
          "$100": "#f0e0af",
          "$200": "#ecd798",
          "$300": "#e8cf82",
          "$400": "#e5ca74",
          "$500": "#e3c567",
          "$600": "#cfb45e",
          "$700": "#aa944d",
          "$800": "#8c7a40",
          "$900": "#6d5f32",
        },
      },
      "fonts": Object {
        "body": "Roboto, sans-serif",
        "code": "FiraCode, monospace",
        "header": "Domine, serif",
      },
      "shadows": Array [
        "0px 0px 1px rgba(51,51,51,0.35)",
        "0px 1px 2px rgba(51,51,51,0.35)",
        "1px 2px 4px rgba(51,51,51,0.35)",
        "2px 4px 8px rgba(51,51,51,0.35)",
        "3px 6px 12px rgba(51,51,51,0.35)",
      ],
    }
  }
>
  <Memo(l) />
  <Component
    type="warning"
  />
</Component>
`;

exports[`Alert should render correctly 1`] = `
<Component
  theme={
    Object {
      "animation": Object {
        "easeOutElastic": "cubic-bezier(0.64, 0.57, 0.67, 1.53)",
      },
      "colors": Object {
        "blue": Object {
          "$100": "#92aec5",
          "$200": "#7397b4",
          "$300": "#5481a4",
          "$400": "#41739a",
          "$500": "#2f6690",
          "$600": "#2b5d83",
          "$700": "#244d6c",
          "$800": "#1e4059",
          "$900": "#173245",
        },
        "gray": Object {
          "$000": "#FFFFFF",
          "$100": "#FCFCFC",
          "$125": "#F6F6F6",
          "$150": "#EFEFEF",
          "$200": "#E6E6E6",
          "$300": "#CFCFCF",
          "$400": "#BDBDBD",
          "$500": "#AAAAAA",
          "$600": "#979797",
          "$700": "#7c7c7c",
          "$800": "#616161",
          "$900": "#333333",
        },
        "green": Object {
          "$100": "#bbceb1",
          "$200": "#a8c09b",
          "$300": "#95b285",
          "$400": "#89a978",
          "$500": "#7ea16b",
          "$600": "#739362",
          "$700": "#5f7951",
          "$800": "#4e6443",
          "$900": "#3d4e34",
        },
        "orange": Object {
          "$100": "#ebbcaf",
          "$200": "#e6a998",
          "$300": "#e19682",
          "$400": "#de8a74",
          "$500": "#db7f67",
          "$600": "#c8745e",
          "$700": "#a45f4d",
          "$800": "#874e40",
          "$900": "#693d32",
        },
        "purple": Object {
          "$100": "#c9aabc",
          "$200": "#ba92a9",
          "$300": "#ab7a97",
          "$400": "#a26b8c",
          "$500": "#995d81",
          "$600": "#8c5576",
          "$700": "#734661",
          "$800": "#5f3a50",
          "$900": "#4a2d3e",
        },
        "red": Object {
          "$100": "#e7789c",
          "$200": "#e25b87",
          "$300": "#df4678",
          "$400": "#db3269",
          "$500": "#d81e5b",
          "$600": "#c51c53",
          "$700": "#a21744",
          "$800": "#851338",
          "$900": "#680f2c",
        },
        "yellow": Object {
          "$100": "#f0e0af",
          "$200": "#ecd798",
          "$300": "#e8cf82",
          "$400": "#e5ca74",
          "$500": "#e3c567",
          "$600": "#cfb45e",
          "$700": "#aa944d",
          "$800": "#8c7a40",
          "$900": "#6d5f32",
        },
      },
      "fonts": Object {
        "body": "Roboto, sans-serif",
        "code": "FiraCode, monospace",
        "header": "Domine, serif",
      },
      "shadows": Array [
        "0px 0px 1px rgba(51,51,51,0.35)",
        "0px 1px 2px rgba(51,51,51,0.35)",
        "1px 2px 4px rgba(51,51,51,0.35)",
        "2px 4px 8px rgba(51,51,51,0.35)",
        "3px 6px 12px rgba(51,51,51,0.35)",
      ],
    }
  }
>
  <Memo(l) />
  <Component />
</Component>
`;
